epoch,binary_crossentropy,dice_coef,loss,lr,val_binary_crossentropy,val_dice_coef,val_loss
0,0.11221575736999512,0.00029490390443243086,0.5828133225440979,1e-04,0.06495872884988785,4.315337583798984e-12,0.5324793457984924
1,0.07540538161993027,3.740510071820191e-12,0.537702739238739,1e-04,0.06495872884988785,4.315337583798984e-12,0.5324793457984924
